<?xml version="1.0" encoding="utf-8" standalone="yes"?>
<gpx version="1.1" creator="GPS Visualizer http://www.gpsvisualizer.com/" xmlns="http://www.topografix.com/GPX/1/1" xmlns:xsi="http://www.w3.org/2001/XMLSchema-instance" xsi:schemaLocation="http://www.topografix.com/GPX/1/1 http://www.topografix.com/GPX/1/1/gpx.xsd">
<wpt lat="55.8236739" lon="37.3163428">
  <name>55.8236739,37.3163428</name>
  <desc>ул. Ленина, 13А, Красногорск, Московская обл., Россия, 143404</desc>
</wpt>
<wpt lat="55.6876623" lon="37.8295531">
  <name>55.6876623,37.8295531</name>
  <desc>МКАД, Москва, Россия, 109507</desc>
</wpt>
<trk>
  <name>ул. Ленина - МКАД</name>
  <desc>57.3 km, 0:58</desc>
  <trkseg>
    <trkpt lat="55.82375fgfg" lon="37.3165"></trkpt>
    <trkpt lat="56.82324" lon="37.31731"></trkpt>
    <trkpt lat="55.82311" lon="37.3175"></trkpt>
    <trkpt lat="55.82278" lon="37.31806"></trkpt>
    <trkpt lat="55.82245" lon="37.31855"></trkpt>
    <trkpt lat="55.82236" lon="37.31864"></trkpt>
    <trkpt lat="55fdgdgdfg.82233" lon="37.31866"></trkpt>
    <trkpt lat="55.82225" lon="37.31881"></trkpt>
    <trkpt lat="55.82208" lon="37.31906"></trkpt>
    <trkpt lat="55.82191" lon="37.31931"></trkpt>
    <trkpt lat="55.82178" lon="37.31949"></trkpt>
    <trkpt lat="55.82169" lon="37.31962"></trkpt>
    <trkpt lat="55.82161" lon="37.31972"></trkpt>
    <trkpt lat="55.82152" lon="37.31983"></trkpt>
    <trkpt lat="55.82139" lon="37.31998"></trkpt>
    <trkpt lat="55.82129" lon="37.32009"></trkpt>
    <trkpt lat="55.82123" lon="37.32015"></trkpt>
    <trkpt lat="55.821" lon="37.32039"></trkpt>
    <trkpt lat="55.82092" lon="37.32047"></trkpt>
    <trkpt lat="55.82085" lon="37.32054"></trkpt>
    <trkpt lat="55.82074" lon="37.32064"></trkpt>
    <trkpt lat="55.82065" lon="37.32073"></trkpt>
    <trkpt lat="55.82053" lon="37.32083"></trkpt>
    <trkpt lat="55.82047" lon="37.32088"></trkpt>
    <trkpt lat="55.82034" lon="37.32099"></trkpt>
    <trkpt lat="55.82022" lon="37.32108"></trkpt>
    <trkpt lat="55.82014" lon="37.32114"></trkpt>
    <trkpt lat="55.82003" lon="37.32124"></trkpt>
    <trkpt lat="55.81997" lon="37.3213"></trkpt>
    <trkpt lat="55.81992" lon="37.32135"></trkpt>
    <trkpt lat="55.81987" lon="37.32141"></trkpt>
    <trkpt lat="55.81981" lon="37.32149"></trkpt>
    <trkpt lat="55.81975" lon="37.32156"></trkpt>
    <trkpt lat="55.8197" lon="37.32165"></trkpt>
    <trkpt lat="55.81964" lon="37.32177"></trkpt>
    <trkpt lat="55.8196" lon="37.32186"></trkpt>
    <trkpt lat="55.81956" lon="37.32197"></trkpt>
    <trkpt lat="55.81952" lon="37.32209"></trkpt>
    <trkpt lat="55.81946" lon="37.32227"></trkpt>
    <trkpt lat="55.81941" lon="37.32246"></trkpt>
    <trkpt lat="55.81935" lon="37.32267"></trkpt>
    <trkpt lat="55.81933" lon="37.3228"></trkpt>
    <trkpt lat="55.81928" lon="37.32303"></trkpt>
    <trkpt lat="55.81927" lon="37.32316"></trkpt>
    <trkpt lat="55.81926" lon="37.32328"></trkpt>
    <trkpt lat="55.81925" lon="37.3235"></trkpt>
    <trkpt lat="55.81923" lon="37.32379"></trkpt>
    <trkpt lat="55.8192" lon="37.3246"></trkpt>
    <trkpt lat="55.81918" lon="37.32497"></trkpt>
    <trkpt lat="55.81914" lon="37.32558"></trkpt>
    <trkpt lat="55.81911" lon="37.32641"></trkpt>
    <trkpt lat="55.81908" lon="37.32738"></trkpt>
    <trkpt lat="55.81907" lon="37.32768"></trkpt>
    <trkpt lat="55.81902" lon="37.32805"></trkpt>
    <trkpt lat="55.81901" lon="37.32833"></trkpt>
    <trkpt lat="55.81901" lon="37.32882"></trkpt>
    <trkpt lat="55.819" lon="37.32929"></trkpt>
    <trkpt lat="55.81898" lon="37.33015"></trkpt>
    <trkpt lat="55.81893" lon="37.3319"></trkpt>
    <trkpt lat="55.81892" lon="37.33229"></trkpt>
    <trkpt lat="55.8189" lon="37.33335"></trkpt>
    <trkpt lat="55.81888" lon="37.33438"></trkpt>
    <trkpt lat="55.81884" lon="37.33582"></trkpt>
    <trkpt lat="55.81884" lon="37.33601"></trkpt>
    <trkpt lat="55.81881" lon="37.33687"></trkpt>
    <trkpt lat="55.81881" lon="37.33719"></trkpt>
    <trkpt lat="55.81878" lon="37.33806"></trkpt>
    <trkpt lat="55.81873" lon="37.33854"></trkpt>
    <trkpt lat="55.81869" lon="37.34002"></trkpt>
    <trkpt lat="55.81867" lon="37.34051"></trkpt>
    <trkpt lat="55.81866" lon="37.34088"></trkpt>
    <trkpt lat="55.81862" lon="37.34181"></trkpt>
    <trkpt lat="55.81861" lon="37.34213"></trkpt>
    <trkpt lat="55.81858" lon="37.34254"></trkpt>
    <trkpt lat="55.81857" lon="37.34276"></trkpt>
    <trkpt lat="55.81854" lon="37.34375"></trkpt>
    <trkpt lat="55.8185" lon="37.3446"></trkpt>
    <trkpt lat="55.81849" lon="37.34482"></trkpt>
    <trkpt lat="55.81845" lon="37.34558"></trkpt>
    <trkpt lat="55.81842" lon="37.34589"></trkpt>
    <trkpt lat="55.81837" lon="37.34649"></trkpt>
    <trkpt lat="55.81833" lon="37.34696"></trkpt>
    <trkpt lat="55.81831" lon="37.34718"></trkpt>
    <trkpt lat="55.81828" lon="37.34746"></trkpt>
    <trkpt lat="55.81825" lon="37.34777"></trkpt>
    <trkpt lat="55.81823" lon="37.34805"></trkpt>
    <trkpt lat="55.8182" lon="37.34826"></trkpt>
    <trkpt lat="55.81809" lon="37.34915"></trkpt>
    <trkpt lat="55.81799" lon="37.34984"></trkpt>
    <trkpt lat="55.81792" lon="37.35034"></trkpt>
    <trkpt lat="55.81788" lon="37.35067"></trkpt>
    <trkpt lat="55.81783" lon="37.351"></trkpt>
    <trkpt lat="55.8178" lon="37.35121"></trkpt>
    <trkpt lat="55.81761" lon="37.35249"></trkpt>
    <trkpt lat="55.81754" lon="37.35299"></trkpt>
    <trkpt lat="55.81751" lon="37.35331"></trkpt>
    <trkpt lat="55.81743" lon="37.35387"></trkpt>
    <trkpt lat="55.8174" lon="37.35413"></trkpt>
    <trkpt lat="55.81738" lon="37.35427"></trkpt>
    <trkpt lat="55.81738" lon="37.35438"></trkpt>
    <trkpt lat="55.81737" lon="37.3545"></trkpt>
    <trkpt lat="55.81737" lon="37.35465"></trkpt>
    <trkpt lat="55.81738" lon="37.35495"></trkpt>
    <trkpt lat="55.81739" lon="37.35544"></trkpt>
    <trkpt lat="55.81741" lon="37.35569"></trkpt>
    <trkpt lat="55.81742" lon="37.3559"></trkpt>
    <trkpt lat="55.81743" lon="37.35609"></trkpt>
    <trkpt lat="55.81744" lon="37.3563"></trkpt>
    <trkpt lat="55.81745" lon="37.35646"></trkpt>
    <trkpt lat="55.81746" lon="37.35671"></trkpt>
    <trkpt lat="55.81746" lon="37.35691"></trkpt>
    <trkpt lat="55.81746" lon="37.35731"></trkpt>
    <trkpt lat="55.81746" lon="37.35731"></trkpt>
    <trkpt lat="55.81752" lon="37.35742"></trkpt>
    <trkpt lat="55.81799" lon="37.35814"></trkpt>
    <trkpt lat="55.81805" lon="37.35822"></trkpt>
    <trkpt lat="55.81821" lon="37.35848"></trkpt>
    <trkpt lat="55.81822" lon="37.35855"></trkpt>
    <trkpt lat="55.81823" lon="37.3586"></trkpt>
    <trkpt lat="55.81825" lon="37.35865"></trkpt>
    <trkpt lat="55.81828" lon="37.3587"></trkpt>
    <trkpt lat="55.81841" lon="37.35889"></trkpt>
    <trkpt lat="55.81854" lon="37.35909"></trkpt>
    <trkpt lat="55.81865" lon="37.35926"></trkpt>
    <trkpt lat="55.81872" lon="37.35937"></trkpt>
    <trkpt lat="55.81882" lon="37.3595"></trkpt>
    <trkpt lat="55.81892" lon="37.35963"></trkpt>
    <trkpt lat="55.81905" lon="37.3598"></trkpt>
    <trkpt lat="55.81917" lon="37.35994"></trkpt>
    <trkpt lat="55.8193" lon="37.36009"></trkpt>
    <trkpt lat="55.81944" lon="37.36025"></trkpt>
    <trkpt lat="55.81958" lon="37.3604"></trkpt>
    <trkpt lat="55.81975" lon="37.36057"></trkpt>
    <trkpt lat="55.81996" lon="37.36076"></trkpt>
    <trkpt lat="55.82013" lon="37.36089"></trkpt>
    <trkpt lat="55.82023" lon="37.36097"></trkpt>
    <trkpt lat="55.82035" lon="37.36105"></trkpt>
    <trkpt lat="55.82047" lon="37.36113"></trkpt>
    <trkpt lat="55.8207" lon="37.36125"></trkpt>
    <trkpt lat="55.82096" lon="37.36137"></trkpt>
    <trkpt lat="55.82117" lon="37.36146"></trkpt>
    <trkpt lat="55.82164" lon="37.36164"></trkpt>
    <trkpt lat="55.8221" lon="37.36183"></trkpt>
    <trkpt lat="55.82249" lon="37.36198"></trkpt>
    <trkpt lat="55.82265" lon="37.36205"></trkpt>
    <trkpt lat="55.82286" lon="37.36214"></trkpt>
    <trkpt lat="55.82296" lon="37.36219"></trkpt>
    <trkpt lat="55.82307" lon="37.36225"></trkpt>
    <trkpt lat="55.82321" lon="37.36233"></trkpt>
    <trkpt lat="55.82335" lon="37.36242"></trkpt>
    <trkpt lat="55.82344" lon="37.36248"></trkpt>
    <trkpt lat="55.82353" lon="37.36254"></trkpt>
    <trkpt lat="55.8236" lon="37.3626"></trkpt>
    <trkpt lat="55.82369" lon="37.36267"></trkpt>
    <trkpt lat="55.82382" lon="37.36278"></trkpt>
    <trkpt lat="55.82391" lon="37.36286"></trkpt>
    <trkpt lat="55.82405" lon="37.36299"></trkpt>
    <trkpt lat="55.82422" lon="37.36316"></trkpt>
    <trkpt lat="55.82437" lon="37.36333"></trkpt>
    <trkpt lat="55.82476" lon="37.36376"></trkpt>
    <trkpt lat="55.82497" lon="37.36399"></trkpt>
    <trkpt lat="55.82555" lon="37.36463"></trkpt>
    <trkpt lat="55.82617" lon="37.36533"></trkpt>
    <trkpt lat="55.8264" lon="37.36559"></trkpt>
    <trkpt lat="55.82678" lon="37.36603"></trkpt>
    <trkpt lat="55.82686" lon="37.36612"></trkpt>
    <trkpt lat="55.82693" lon="37.36621"></trkpt>
    <trkpt lat="55.82703" lon="37.36634"></trkpt>
    <trkpt lat="55.82714" lon="37.36649"></trkpt>
    <trkpt lat="55.82735" lon="37.36681"></trkpt>
    <trkpt lat="55.82745" lon="37.367"></trkpt>
    <trkpt lat="55.82756" lon="37.3672"></trkpt>
    <trkpt lat="55.82763" lon="37.36734"></trkpt>
    <trkpt lat="55.8277" lon="37.36749"></trkpt>
    <trkpt lat="55.82783" lon="37.36778"></trkpt>
    <trkpt lat="55.82788" lon="37.36789"></trkpt>
    <trkpt lat="55.82793" lon="37.36803"></trkpt>
    <trkpt lat="55.82799" lon="37.36819"></trkpt>
    <trkpt lat="55.82805" lon="37.36836"></trkpt>
    <trkpt lat="55.82811" lon="37.36854"></trkpt>
    <trkpt lat="55.8282" lon="37.36886"></trkpt>
    <trkpt lat="55.82832" lon="37.3693"></trkpt>
    <trkpt lat="55.82852" lon="37.37014"></trkpt>
    <trkpt lat="55.82858" lon="37.37038"></trkpt>
    <trkpt lat="55.82875" lon="37.37111"></trkpt>
    <trkpt lat="55.82878" lon="37.37123"></trkpt>
    <trkpt lat="55.82886" lon="37.37156"></trkpt>
    <trkpt lat="55.82894" lon="37.3719"></trkpt>
    <trkpt lat="55.82925" lon="37.37315"></trkpt>
    <trkpt lat="55.82967" lon="37.3748"></trkpt>
    <trkpt lat="55.82975" lon="37.37511"></trkpt>
    <trkpt lat="55.8299" lon="37.37577"></trkpt>
    <trkpt lat="55.82999" lon="37.37617"></trkpt>
    <trkpt lat="55.83007" lon="37.3765"></trkpt>
    <trkpt lat="55.8304" lon="37.37785"></trkpt>
    <trkpt lat="55.83059" lon="37.3786"></trkpt>
    <trkpt lat="55.83074" lon="37.37926"></trkpt>
    <trkpt lat="55.83099" lon="37.38024"></trkpt>
    <trkpt lat="55.83113" lon="37.38075"></trkpt>
    <trkpt lat="55.83124" lon="37.38111"></trkpt>
    <trkpt lat="55.83132" lon="37.38144"></trkpt>
    <trkpt lat="55.8314" lon="37.38178"></trkpt>
    <trkpt lat="55.83147" lon="37.38206"></trkpt>
    <trkpt lat="55.83154" lon="37.38242"></trkpt>
    <trkpt lat="55.83161" lon="37.38278"></trkpt>
    <trkpt lat="55.83166" lon="37.38307"></trkpt>
    <trkpt lat="55.83169" lon="37.38327"></trkpt>
    <trkpt lat="55.83173" lon="37.38352"></trkpt>
    <trkpt lat="55.83177" lon="37.38386"></trkpt>
    <trkpt lat="55.83181" lon="37.3842"></trkpt>
    <trkpt lat="55.83183" lon="37.38448"></trkpt>
    <trkpt lat="55.83186" lon="37.38476"></trkpt>
    <trkpt lat="55.83188" lon="37.38518"></trkpt>
    <trkpt lat="55.83192" lon="37.38568"></trkpt>
    <trkpt lat="55.83196" lon="37.38608"></trkpt>
    <trkpt lat="55.83198" lon="37.3862"></trkpt>
    <trkpt lat="55.83201" lon="37.38634"></trkpt>
    <trkpt lat="55.83202" lon="37.38648"></trkpt>
    <trkpt lat="55.83206" lon="37.38671"></trkpt>
    <trkpt lat="55.83209" lon="37.38688"></trkpt>
    <trkpt lat="55.83212" lon="37.38704"></trkpt>
    <trkpt lat="55.83217" lon="37.38728"></trkpt>
    <trkpt lat="55.83229" lon="37.38777"></trkpt>
    <trkpt lat="55.83233" lon="37.38795"></trkpt>
    <trkpt lat="55.83238" lon="37.38817"></trkpt>
    <trkpt lat="55.83238" lon="37.38817"></trkpt>
    <trkpt lat="55.8325" lon="37.38852"></trkpt>
    <trkpt lat="55.83258" lon="37.38876"></trkpt>
    <trkpt lat="55.83265" lon="37.389"></trkpt>
    <trkpt lat="55.83269" lon="37.38915"></trkpt>
    <trkpt lat="55.83275" lon="37.38934"></trkpt>
    <trkpt lat="55.8328" lon="37.38953"></trkpt>
    <trkpt lat="55.83282" lon="37.38967"></trkpt>
    <trkpt lat="55.83284" lon="37.38978"></trkpt>
    <trkpt lat="55.83285" lon="37.38983"></trkpt>
    <trkpt lat="55.83286" lon="37.39001"></trkpt>
    <trkpt lat="55.83287" lon="37.39018"></trkpt>
    <trkpt lat="55.83288" lon="37.39037"></trkpt>
    <trkpt lat="55.83287" lon="37.3906"></trkpt>
    <trkpt lat="55.83286" lon="37.39075"></trkpt>
    <trkpt lat="55.83284" lon="37.39106"></trkpt>
    <trkpt lat="55.83279" lon="37.39141"></trkpt>
    <trkpt lat="55.8327" lon="37.3922"></trkpt>
    <trkpt lat="55.83267" lon="37.39248"></trkpt>
    <trkpt lat="55.83267" lon="37.39277"></trkpt>
    <trkpt lat="55.8327" lon="37.39321"></trkpt>
    <trkpt lat="55.83268" lon="37.39353"></trkpt>
    <trkpt lat="55.83268" lon="37.39369"></trkpt>
    <trkpt lat="55.83267" lon="37.39377"></trkpt>
    <trkpt lat="55.83267" lon="37.39383"></trkpt>
    <trkpt lat="55.83266" lon="37.39388"></trkpt>
    <trkpt lat="55.83266" lon="37.39388"></trkpt>
    <trkpt lat="55.83273" lon="37.39462"></trkpt>
    <trkpt lat="55.83267" lon="37.395"></trkpt>
    <trkpt lat="55.8326" lon="37.39552"></trkpt>
    <trkpt lat="55.83255" lon="37.39587"></trkpt>
    <trkpt lat="55.83251" lon="37.39616"></trkpt>
    <trkpt lat="55.83242" lon="37.3967"></trkpt>
    <trkpt lat="55.83235" lon="37.39702"></trkpt>
    <trkpt lat="55.83234" lon="37.39709"></trkpt>
    <trkpt lat="55.83234" lon="37.39709"></trkpt>
    <trkpt lat="55.83229" lon="37.39709"></trkpt>
    <trkpt lat="55.83227" lon="37.3971"></trkpt>
    <trkpt lat="55.83224" lon="37.39713"></trkpt>
    <trkpt lat="55.83218" lon="37.39718"></trkpt>
    <trkpt lat="55.83209" lon="37.39732"></trkpt>
    <trkpt lat="55.83205" lon="37.39737"></trkpt>
    <trkpt lat="55.83202" lon="37.39742"></trkpt>
    <trkpt lat="55.83193" lon="37.39751"></trkpt>
    <trkpt lat="55.83188" lon="37.39753"></trkpt>
    <trkpt lat="55.83185" lon="37.39754"></trkpt>
    <trkpt lat="55.83181" lon="37.39755"></trkpt>
    <trkpt lat="55.83176" lon="37.39756"></trkpt>
    <trkpt lat="55.83174" lon="37.39756"></trkpt>
    <trkpt lat="55.83169" lon="37.39755"></trkpt>
    <trkpt lat="55.83166" lon="37.39754"></trkpt>
    <trkpt lat="55.83162" lon="37.39752"></trkpt>
    <trkpt lat="55.83157" lon="37.39749"></trkpt>
    <trkpt lat="55.83152" lon="37.39745"></trkpt>
    <trkpt lat="55.83148" lon="37.39738"></trkpt>
    <trkpt lat="55.83143" lon="37.3973"></trkpt>
    <trkpt lat="55.8314" lon="37.39723"></trkpt>
    <trkpt lat="55.83138" lon="37.39716"></trkpt>
    <trkpt lat="55.83135" lon="37.39709"></trkpt>
    <trkpt lat="55.83134" lon="37.39703"></trkpt>
    <trkpt lat="55.83133" lon="37.39698"></trkpt>
    <trkpt lat="55.83132" lon="37.39692"></trkpt>
    <trkpt lat="55.83131" lon="37.39683"></trkpt>
    <trkpt lat="55.83131" lon="37.39676"></trkpt>
    <trkpt lat="55.83131" lon="37.39669"></trkpt>
    <trkpt lat="55.83132" lon="37.39661"></trkpt>
    <trkpt lat="55.83133" lon="37.39654"></trkpt>
    <trkpt lat="55.83134" lon="37.39647"></trkpt>
    <trkpt lat="55.83135" lon="37.39642"></trkpt>
    <trkpt lat="55.83137" lon="37.39637"></trkpt>
    <trkpt lat="55.83138" lon="37.39631"></trkpt>
    <trkpt lat="55.83141" lon="37.39626"></trkpt>
    <trkpt lat="55.83145" lon="37.39618"></trkpt>
    <trkpt lat="55.83147" lon="37.39614"></trkpt>
    <trkpt lat="55.83151" lon="37.39609"></trkpt>
    <trkpt lat="55.83155" lon="37.39606"></trkpt>
    <trkpt lat="55.83157" lon="37.39604"></trkpt>
    <trkpt lat="55.8316" lon="37.39602"></trkpt>
    <trkpt lat="55.83172" lon="37.39596"></trkpt>
    <trkpt lat="55.83181" lon="37.39591"></trkpt>
    <trkpt lat="55.83188" lon="37.39588"></trkpt>
    <trkpt lat="55.83193" lon="37.39584"></trkpt>
    <trkpt lat="55.832" lon="37.39579"></trkpt>
    <trkpt lat="55.832" lon="37.39579"></trkpt>
    <trkpt lat="55.83221" lon="37.39586"></trkpt>
    <trkpt lat="55.83239" lon="37.3959"></trkpt>
    <trkpt lat="55.83246" lon="37.39593"></trkpt>
    <trkpt lat="55.8325" lon="37.39594"></trkpt>
    <trkpt lat="55.8326" lon="37.39597"></trkpt>
    <trkpt lat="55.83271" lon="37.39599"></trkpt>
    <trkpt lat="55.83279" lon="37.39602"></trkpt>
    <trkpt lat="55.83333" lon="37.39617"></trkpt>
    <trkpt lat="55.83345" lon="37.3962"></trkpt>
    <trkpt lat="55.83371" lon="37.39626"></trkpt>
    <trkpt lat="55.83412" lon="37.39634"></trkpt>
    <trkpt lat="55.83425" lon="37.39636"></trkpt>
    <trkpt lat="55.83435" lon="37.39638"></trkpt>
    <trkpt lat="55.83454" lon="37.39639"></trkpt>
    <trkpt lat="55.83478" lon="37.39638"></trkpt>
    <trkpt lat="55.83504" lon="37.39638"></trkpt>
    <trkpt lat="55.83554" lon="37.3964"></trkpt>
    <trkpt lat="55.83597" lon="37.39641"></trkpt>
    <trkpt lat="55.8364" lon="37.39641"></trkpt>
    <trkpt lat="55.83664" lon="37.3964"></trkpt>
    <trkpt lat="55.83679" lon="37.3964"></trkpt>
    <trkpt lat="55.83701" lon="37.39638"></trkpt>
    <trkpt lat="55.83731" lon="37.39633"></trkpt>
    <trkpt lat="55.8378" lon="37.39623"></trkpt>
    <trkpt lat="55.83826" lon="37.39621"></trkpt>
    <trkpt lat="55.83843" lon="37.39616"></trkpt>
    <trkpt lat="55.8387" lon="37.39607"></trkpt>
    <trkpt lat="55.83902" lon="37.39597"></trkpt>
    <trkpt lat="55.83932" lon="37.39586"></trkpt>
    <trkpt lat="55.83958" lon="37.39574"></trkpt>
    <trkpt lat="55.8398" lon="37.39565"></trkpt>
    <trkpt lat="55.84005" lon="37.39553"></trkpt>
    <trkpt lat="55.84025" lon="37.39544"></trkpt>
    <trkpt lat="55.84045" lon="37.39534"></trkpt>
    <trkpt lat="55.84064" lon="37.39523"></trkpt>
    <trkpt lat="55.84079" lon="37.39514"></trkpt>
    <trkpt lat="55.84131" lon="37.3948"></trkpt>
    <trkpt lat="55.84134" lon="37.39478"></trkpt>
    <trkpt lat="55.84153" lon="37.39465"></trkpt>
    <trkpt lat="55.84183" lon="37.39442"></trkpt>
    <trkpt lat="55.84204" lon="37.39426"></trkpt>
    <trkpt lat="55.8425" lon="37.39391"></trkpt>
    <trkpt lat="55.84256" lon="37.39387"></trkpt>
    <trkpt lat="55.84309" lon="37.39348"></trkpt>
    <trkpt lat="55.8432" lon="37.39339"></trkpt>
    <trkpt lat="55.84332" lon="37.3933"></trkpt>
    <trkpt lat="55.84369" lon="37.39303"></trkpt>
    <trkpt lat="55.84385" lon="37.39293"></trkpt>
    <trkpt lat="55.84408" lon="37.39279"></trkpt>
    <trkpt lat="55.84436" lon="37.39264"></trkpt>
    <trkpt lat="55.84458" lon="37.39254"></trkpt>
    <trkpt lat="55.84487" lon="37.39242"></trkpt>
    <trkpt lat="55.84514" lon="37.39232"></trkpt>
    <trkpt lat="55.84552" lon="37.3922"></trkpt>
    <trkpt lat="55.84582" lon="37.39212"></trkpt>
    <trkpt lat="55.84595" lon="37.39209"></trkpt>
    <trkpt lat="55.84604" lon="37.39208"></trkpt>
    <trkpt lat="55.84628" lon="37.39204"></trkpt>
    <trkpt lat="55.84648" lon="37.39203"></trkpt>
    <trkpt lat="55.84674" lon="37.392"></trkpt>
    <trkpt lat="55.84711" lon="37.392"></trkpt>
    <trkpt lat="55.84739" lon="37.39202"></trkpt>
    <trkpt lat="55.84763" lon="37.39205"></trkpt>
    <trkpt lat="55.84793" lon="37.39211"></trkpt>
    <trkpt lat="55.84834" lon="37.39223"></trkpt>
    <trkpt lat="55.84846" lon="37.39226"></trkpt>
    <trkpt lat="55.84887" lon="37.3924"></trkpt>
    <trkpt lat="55.84908" lon="37.39249"></trkpt>
    <trkpt lat="55.84934" lon="37.39262"></trkpt>
    <trkpt lat="55.84974" lon="37.39281"></trkpt>
    <trkpt lat="55.85013" lon="37.39303"></trkpt>
    <trkpt lat="55.8508" lon="37.3934"></trkpt>
    <trkpt lat="55.85152" lon="37.39377"></trkpt>
    <trkpt lat="55.85234" lon="37.39422"></trkpt>
    <trkpt lat="55.85312" lon="37.39464"></trkpt>
    <trkpt lat="55.85375" lon="37.39497"></trkpt>
    <trkpt lat="55.8542" lon="37.39522"></trkpt>
    <trkpt lat="55.85491" lon="37.3956"></trkpt>
    <trkpt lat="55.85563" lon="37.39598"></trkpt>
    <trkpt lat="55.85585" lon="37.3961"></trkpt>
    <trkpt lat="55.85615" lon="37.39627"></trkpt>
    <trkpt lat="55.85726" lon="37.39685"></trkpt>
    <trkpt lat="55.8578" lon="37.39715"></trkpt>
    <trkpt lat="55.85841" lon="37.39748"></trkpt>
    <trkpt lat="55.85873" lon="37.39766"></trkpt>
    <trkpt lat="55.85916" lon="37.39792"></trkpt>
    <trkpt lat="55.85933" lon="37.39801"></trkpt>
    <trkpt lat="55.8596" lon="37.39819"></trkpt>
    <trkpt lat="55.85983" lon="37.39833"></trkpt>
    <trkpt lat="55.86008" lon="37.3985"></trkpt>
    <trkpt lat="55.86057" lon="37.39884"></trkpt>
    <trkpt lat="55.86069" lon="37.39893"></trkpt>
    <trkpt lat="55.86089" lon="37.39908"></trkpt>
    <trkpt lat="55.86105" lon="37.39921"></trkpt>
    <trkpt lat="55.86115" lon="37.39929"></trkpt>
    <trkpt lat="55.86145" lon="37.39953"></trkpt>
    <trkpt lat="55.86173" lon="37.39978"></trkpt>
    <trkpt lat="55.86212" lon="37.40011"></trkpt>
    <trkpt lat="55.8625" lon="37.40044"></trkpt>
    <trkpt lat="55.8626" lon="37.40054"></trkpt>
    <trkpt lat="55.86279" lon="37.4007"></trkpt>
    <trkpt lat="55.86298" lon="37.40088"></trkpt>
    <trkpt lat="55.86319" lon="37.40107"></trkpt>
    <trkpt lat="55.86368" lon="37.40156"></trkpt>
    <trkpt lat="55.86414" lon="37.40204"></trkpt>
    <trkpt lat="55.86442" lon="37.40233"></trkpt>
    <trkpt lat="55.86455" lon="37.40249"></trkpt>
    <trkpt lat="55.86501" lon="37.403"></trkpt>
    <trkpt lat="55.86547" lon="37.40357"></trkpt>
    <trkpt lat="55.86587" lon="37.40405"></trkpt>
    <trkpt lat="55.86631" lon="37.40462"></trkpt>
    <trkpt lat="55.8668" lon="37.40526"></trkpt>
    <trkpt lat="55.86718" lon="37.40578"></trkpt>
    <trkpt lat="55.86745" lon="37.40618"></trkpt>
    <trkpt lat="55.86772" lon="37.40658"></trkpt>
    <trkpt lat="55.86871" lon="37.40814"></trkpt>
    <trkpt lat="55.8689" lon="37.40846"></trkpt>
    <trkpt lat="55.86918" lon="37.40892"></trkpt>
    <trkpt lat="55.86932" lon="37.40919"></trkpt>
    <trkpt lat="55.86961" lon="37.40969"></trkpt>
    <trkpt lat="55.87012" lon="37.41067"></trkpt>
    <trkpt lat="55.87049" lon="37.41142"></trkpt>
    <trkpt lat="55.87072" lon="37.41189"></trkpt>
    <trkpt lat="55.87075" lon="37.41197"></trkpt>
    <trkpt lat="55.87087" lon="37.41223"></trkpt>
    <trkpt lat="55.87097" lon="37.41245"></trkpt>
    <trkpt lat="55.87115" lon="37.41285"></trkpt>
    <trkpt lat="55.87145" lon="37.41349"></trkpt>
    <trkpt lat="55.87185" lon="37.41444"></trkpt>
    <trkpt lat="55.87188" lon="37.41451"></trkpt>
    <trkpt lat="55.87201" lon="37.41483"></trkpt>
    <trkpt lat="55.87212" lon="37.41513"></trkpt>
    <trkpt lat="55.87243" lon="37.41592"></trkpt>
    <trkpt lat="55.87309" lon="37.41769"></trkpt>
    <trkpt lat="55.87331" lon="37.4183"></trkpt>
    <trkpt lat="55.87389" lon="37.42004"></trkpt>
    <trkpt lat="55.87435" lon="37.42152"></trkpt>
    <trkpt lat="55.87479" lon="37.42294"></trkpt>
    <trkpt lat="55.87498" lon="37.42358"></trkpt>
    <trkpt lat="55.8752" lon="37.42426"></trkpt>
    <trkpt lat="55.87571" lon="37.42586"></trkpt>
    <trkpt lat="55.8762" lon="37.42742"></trkpt>
    <trkpt lat="55.87645" lon="37.42818"></trkpt>
    <trkpt lat="55.87656" lon="37.42854"></trkpt>
    <trkpt lat="55.87663" lon="37.42878"></trkpt>
    <trkpt lat="55.8769" lon="37.42966"></trkpt>
    <trkpt lat="55.87708" lon="37.43022"></trkpt>
    <trkpt lat="55.87734" lon="37.43104"></trkpt>
    <trkpt lat="55.87742" lon="37.43133"></trkpt>
    <trkpt lat="55.87754" lon="37.43169"></trkpt>
    <trkpt lat="55.87763" lon="37.432"></trkpt>
    <trkpt lat="55.87821" lon="37.43383"></trkpt>
    <trkpt lat="55.87836" lon="37.43435"></trkpt>
    <trkpt lat="55.87857" lon="37.43505"></trkpt>
    <trkpt lat="55.87911" lon="37.43677"></trkpt>
    <trkpt lat="55.87929" lon="37.43738"></trkpt>
    <trkpt lat="55.87941" lon="37.43777"></trkpt>
    <trkpt lat="55.87948" lon="37.43799"></trkpt>
    <trkpt lat="55.87963" lon="37.43847"></trkpt>
    <trkpt lat="55.8797" lon="37.43866"></trkpt>
    <trkpt lat="55.87979" lon="37.43895"></trkpt>
    <trkpt lat="55.88047" lon="37.44113"></trkpt>
    <trkpt lat="55.88099" lon="37.44296"></trkpt>
    <trkpt lat="55.8811" lon="37.44342"></trkpt>
    <trkpt lat="55.88133" lon="37.44446"></trkpt>
    <trkpt lat="55.88153" lon="37.44544"></trkpt>
    <trkpt lat="55.88171" lon="37.44626"></trkpt>
    <trkpt lat="55.88177" lon="37.44665"></trkpt>
    <trkpt lat="55.88185" lon="37.44716"></trkpt>
    <trkpt lat="55.88195" lon="37.44786"></trkpt>
    <trkpt lat="55.882" lon="37.44808"></trkpt>
    <trkpt lat="55.88202" lon="37.44827"></trkpt>
    <trkpt lat="55.88203" lon="37.44834"></trkpt>
    <trkpt lat="55.88208" lon="37.44874"></trkpt>
    <trkpt lat="55.88208" lon="37.44882"></trkpt>
    <trkpt lat="55.88218" lon="37.44958"></trkpt>
    <trkpt lat="55.8823" lon="37.45067"></trkpt>
    <trkpt lat="55.88236" lon="37.45142"></trkpt>
    <trkpt lat="55.88238" lon="37.45155"></trkpt>
    <trkpt lat="55.88241" lon="37.45202"></trkpt>
    <trkpt lat="55.88243" lon="37.45227"></trkpt>
    <trkpt lat="55.88247" lon="37.45296"></trkpt>
    <trkpt lat="55.8825" lon="37.45349"></trkpt>
    <trkpt lat="55.88251" lon="37.45384"></trkpt>
    <trkpt lat="55.88251" lon="37.45399"></trkpt>
    <trkpt lat="55.88251" lon="37.4541"></trkpt>
    <trkpt lat="55.88252" lon="37.45426"></trkpt>
    <trkpt lat="55.88254" lon="37.4551"></trkpt>
    <trkpt lat="55.88255" lon="37.45577"></trkpt>
    <trkpt lat="55.88255" lon="37.45626"></trkpt>
    <trkpt lat="55.88257" lon="37.45694"></trkpt>
    <trkpt lat="55.88258" lon="37.4574"></trkpt>
    <trkpt lat="55.88259" lon="37.45801"></trkpt>
    <trkpt lat="55.88261" lon="37.45973"></trkpt>
    <trkpt lat="55.88262" lon="37.46066"></trkpt>
    <trkpt lat="55.88263" lon="37.46105"></trkpt>
    <trkpt lat="55.88264" lon="37.4612"></trkpt>
    <trkpt lat="55.88268" lon="37.46206"></trkpt>
    <trkpt lat="55.88272" lon="37.46272"></trkpt>
    <trkpt lat="55.88278" lon="37.46356"></trkpt>
    <trkpt lat="55.88281" lon="37.46397"></trkpt>
    <trkpt lat="55.88284" lon="37.46432"></trkpt>
    <trkpt lat="55.88287" lon="37.46462"></trkpt>
    <trkpt lat="55.88289" lon="37.46486"></trkpt>
    <trkpt lat="55.8829" lon="37.46498"></trkpt>
    <trkpt lat="55.88296" lon="37.46543"></trkpt>
    <trkpt lat="55.88304" lon="37.46599"></trkpt>
    <trkpt lat="55.88315" lon="37.46667"></trkpt>
    <trkpt lat="55.88328" lon="37.46736"></trkpt>
    <trkpt lat="55.88338" lon="37.46788"></trkpt>
    <trkpt lat="55.88344" lon="37.46816"></trkpt>
    <trkpt lat="55.8836" lon="37.46889"></trkpt>
    <trkpt lat="55.88375" lon="37.46958"></trkpt>
    <trkpt lat="55.88396" lon="37.4704"></trkpt>
    <trkpt lat="55.88403" lon="37.4707"></trkpt>
    <trkpt lat="55.8841" lon="37.47099"></trkpt>
    <trkpt lat="55.88415" lon="37.47122"></trkpt>
    <trkpt lat="55.88422" lon="37.47149"></trkpt>
    <trkpt lat="55.88436" lon="37.47204"></trkpt>
    <trkpt lat="55.88452" lon="37.47269"></trkpt>
    <trkpt lat="55.88463" lon="37.47314"></trkpt>
    <trkpt lat="55.88482" lon="37.47385"></trkpt>
    <trkpt lat="55.885" lon="37.47457"></trkpt>
    <trkpt lat="55.88529" lon="37.47571"></trkpt>
    <trkpt lat="55.88572" lon="37.47748"></trkpt>
    <trkpt lat="55.8858" lon="37.47779"></trkpt>
    <trkpt lat="55.88607" lon="37.47889"></trkpt>
    <trkpt lat="55.88625" lon="37.47955"></trkpt>
    <trkpt lat="55.88632" lon="37.4799"></trkpt>
    <trkpt lat="55.88649" lon="37.4806"></trkpt>
    <trkpt lat="55.88659" lon="37.48098"></trkpt>
    <trkpt lat="55.88681" lon="37.48185"></trkpt>
    <trkpt lat="55.88714" lon="37.48316"></trkpt>
    <trkpt lat="55.88746" lon="37.4844"></trkpt>
    <trkpt lat="55.88793" lon="37.48622"></trkpt>
    <trkpt lat="55.888" lon="37.48645"></trkpt>
    <trkpt lat="55.88818" lon="37.48711"></trkpt>
    <trkpt lat="55.88857" lon="37.48834"></trkpt>
    <trkpt lat="55.88864" lon="37.48855"></trkpt>
    <trkpt lat="55.88904" lon="37.48969"></trkpt>
    <trkpt lat="55.88935" lon="37.49053"></trkpt>
    <trkpt lat="55.88972" lon="37.49143"></trkpt>
    <trkpt lat="55.89002" lon="37.49211"></trkpt>
    <trkpt lat="55.89011" lon="37.49232"></trkpt>
    <trkpt lat="55.89044" lon="37.49307"></trkpt>
    <trkpt lat="55.89057" lon="37.49333"></trkpt>
    <trkpt lat="55.89102" lon="37.49434"></trkpt>
    <trkpt lat="55.89173" lon="37.49597"></trkpt>
    <trkpt lat="55.89185" lon="37.49626"></trkpt>
    <trkpt lat="55.89194" lon="37.49648"></trkpt>
    <trkpt lat="55.89204" lon="37.49669"></trkpt>
    <trkpt lat="55.8928" lon="37.49835"></trkpt>
    <trkpt lat="55.89346" lon="37.49987"></trkpt>
    <trkpt lat="55.89399" lon="37.50109"></trkpt>
    <trkpt lat="55.89414" lon="37.5014"></trkpt>
    <trkpt lat="55.89481" lon="37.50295"></trkpt>
    <trkpt lat="55.8978" lon="37.50975"></trkpt>
    <trkpt lat="55.89961" lon="37.51386"></trkpt>
    <trkpt lat="55.90083" lon="37.5166"></trkpt>
    <trkpt lat="55.90088" lon="37.51673"></trkpt>
    <trkpt lat="55.90097" lon="37.51692"></trkpt>
    <trkpt lat="55.90191" lon="37.51908"></trkpt>
    <trkpt lat="55.90257" lon="37.52056"></trkpt>
    <trkpt lat="55.90299" lon="37.52151"></trkpt>
    <trkpt lat="55.90379" lon="37.52341"></trkpt>
    <trkpt lat="55.90416" lon="37.52433"></trkpt>
    <trkpt lat="55.90428" lon="37.52465"></trkpt>
    <trkpt lat="55.90429" lon="37.52468"></trkpt>
    <trkpt lat="55.90443" lon="37.52507"></trkpt>
    <trkpt lat="55.90457" lon="37.52546"></trkpt>
    <trkpt lat="55.90468" lon="37.52577"></trkpt>
    <trkpt lat="55.90477" lon="37.52604"></trkpt>
    <trkpt lat="55.90487" lon="37.52635"></trkpt>
    <trkpt lat="55.90518" lon="37.52741"></trkpt>
    <trkpt lat="55.90532" lon="37.52789"></trkpt>
    <trkpt lat="55.90552" lon="37.52858"></trkpt>
    <trkpt lat="55.90566" lon="37.52916"></trkpt>
    <trkpt lat="55.90576" lon="37.52958"></trkpt>
    <trkpt lat="55.90586" lon="37.53"></trkpt>
    <trkpt lat="55.90605" lon="37.53089"></trkpt>
    <trkpt lat="55.90619" lon="37.53159"></trkpt>
    <trkpt lat="55.9063" lon="37.53213"></trkpt>
    <trkpt lat="55.90643" lon="37.53286"></trkpt>
    <trkpt lat="55.90647" lon="37.5331"></trkpt>
    <trkpt lat="55.90655" lon="37.53362"></trkpt>
    <trkpt lat="55.90665" lon="37.5343"></trkpt>
    <trkpt lat="55.90674" lon="37.53496"></trkpt>
    <trkpt lat="55.90681" lon="37.53547"></trkpt>
    <trkpt lat="55.90688" lon="37.53601"></trkpt>
    <trkpt lat="55.907" lon="37.53714"></trkpt>
    <trkpt lat="55.90713" lon="37.53828"></trkpt>
    <trkpt lat="55.90727" lon="37.53967"></trkpt>
    <trkpt lat="55.90727" lon="37.53967"></trkpt>
    <trkpt lat="55.90739" lon="37.54079"></trkpt>
    <trkpt lat="55.90747" lon="37.54155"></trkpt>
    <trkpt lat="55.90762" lon="37.54297"></trkpt>
    <trkpt lat="55.90769" lon="37.54356"></trkpt>
    <trkpt lat="55.90775" lon="37.54416"></trkpt>
    <trkpt lat="55.90796" lon="37.54619"></trkpt>
    <trkpt lat="55.90802" lon="37.54681"></trkpt>
    <trkpt lat="55.90809" lon="37.54744"></trkpt>
    <trkpt lat="55.90816" lon="37.54812"></trkpt>
    <trkpt lat="55.90836" lon="37.54995"></trkpt>
    <trkpt lat="55.90851" lon="37.55127"></trkpt>
    <trkpt lat="55.90858" lon="37.55197"></trkpt>
    <trkpt lat="55.9086" lon="37.5522"></trkpt>
    <trkpt lat="55.90875" lon="37.55359"></trkpt>
    <trkpt lat="55.90885" lon="37.55465"></trkpt>
    <trkpt lat="55.90902" lon="37.55622"></trkpt>
    <trkpt lat="55.90907" lon="37.55689"></trkpt>
    <trkpt lat="55.90932" lon="37.55933"></trkpt>
    <trkpt lat="55.90943" lon="37.56023"></trkpt>
    <trkpt lat="55.90963" lon="37.56207"></trkpt>
    <trkpt lat="55.90981" lon="37.56362"></trkpt>
    <trkpt lat="55.90985" lon="37.56399"></trkpt>
    <trkpt lat="55.91003" lon="37.56566"></trkpt>
    <trkpt lat="55.91005" lon="37.56587"></trkpt>
    <trkpt lat="55.91053" lon="37.57031"></trkpt>
    <trkpt lat="55.91061" lon="37.57112"></trkpt>
    <trkpt lat="55.91067" lon="37.57179"></trkpt>
    <trkpt lat="55.91069" lon="37.57198"></trkpt>
    <trkpt lat="55.91076" lon="37.57295"></trkpt>
    <trkpt lat="55.9108" lon="37.57354"></trkpt>
    <trkpt lat="55.91085" lon="37.57437"></trkpt>
    <trkpt lat="55.91088" lon="37.57521"></trkpt>
    <trkpt lat="55.9109" lon="37.57642"></trkpt>
    <trkpt lat="55.9109" lon="37.57735"></trkpt>
    <trkpt lat="55.91089" lon="37.5781"></trkpt>
    <trkpt lat="55.91088" lon="37.57868"></trkpt>
    <trkpt lat="55.91087" lon="37.57902"></trkpt>
    <trkpt lat="55.91086" lon="37.57949"></trkpt>
    <trkpt lat="55.9108" lon="37.58028"></trkpt>
    <trkpt lat="55.9108" lon="37.58037"></trkpt>
    <trkpt lat="55.91067" lon="37.58191"></trkpt>
    <trkpt lat="55.91057" lon="37.58299"></trkpt>
    <trkpt lat="55.91053" lon="37.58337"></trkpt>
    <trkpt lat="55.91049" lon="37.5837"></trkpt>
    <trkpt lat="55.91041" lon="37.58446"></trkpt>
    <trkpt lat="55.91032" lon="37.5851"></trkpt>
    <trkpt lat="55.91002" lon="37.58684"></trkpt>
    <trkpt lat="55.91" lon="37.58698"></trkpt>
    <trkpt lat="55.90984" lon="37.58776"></trkpt>
    <trkpt lat="55.90955" lon="37.58916"></trkpt>
    <trkpt lat="55.90927" lon="37.59028"></trkpt>
    <trkpt lat="55.90889" lon="37.5917"></trkpt>
    <trkpt lat="55.90857" lon="37.59282"></trkpt>
    <trkpt lat="55.90814" lon="37.59441"></trkpt>
    <trkpt lat="55.90794" lon="37.59513"></trkpt>
    <trkpt lat="55.90773" lon="37.59584"></trkpt>
    <trkpt lat="55.90735" lon="37.59718"></trkpt>
    <trkpt lat="55.90715" lon="37.59789"></trkpt>
    <trkpt lat="55.90638" lon="37.60064"></trkpt>
    <trkpt lat="55.90494" lon="37.60581"></trkpt>
    <trkpt lat="55.90479" lon="37.60637"></trkpt>
    <trkpt lat="55.90451" lon="37.60744"></trkpt>
    <trkpt lat="55.9042" lon="37.60854"></trkpt>
    <trkpt lat="55.90376" lon="37.61011"></trkpt>
    <trkpt lat="55.90334" lon="37.6118"></trkpt>
    <trkpt lat="55.90305" lon="37.61292"></trkpt>
    <trkpt lat="55.90263" lon="37.61458"></trkpt>
    <trkpt lat="55.90257" lon="37.61484"></trkpt>
    <trkpt lat="55.90235" lon="37.61574"></trkpt>
    <trkpt lat="55.90202" lon="37.61713"></trkpt>
    <trkpt lat="55.90179" lon="37.61811"></trkpt>
    <trkpt lat="55.90158" lon="37.619"></trkpt>
    <trkpt lat="55.90158" lon="37.61902"></trkpt>
    <trkpt lat="55.90104" lon="37.62153"></trkpt>
    <trkpt lat="55.90063" lon="37.62347"></trkpt>
    <trkpt lat="55.90017" lon="37.6257"></trkpt>
    <trkpt lat="55.90002" lon="37.62644"></trkpt>
    <trkpt lat="55.89967" lon="37.62836"></trkpt>
    <trkpt lat="55.89939" lon="37.62989"></trkpt>
    <trkpt lat="55.89924" lon="37.63067"></trkpt>
    <trkpt lat="55.89916" lon="37.6311"></trkpt>
    <trkpt lat="55.89913" lon="37.63135"></trkpt>
    <trkpt lat="55.8989" lon="37.63261"></trkpt>
    <trkpt lat="55.8987" lon="37.63387"></trkpt>
    <trkpt lat="55.89854" lon="37.63487"></trkpt>
    <trkpt lat="55.89838" lon="37.63586"></trkpt>
    <trkpt lat="55.89819" lon="37.6371"></trkpt>
    <trkpt lat="55.8978" lon="37.63975"></trkpt>
    <trkpt lat="55.89747" lon="37.64213"></trkpt>
    <trkpt lat="55.89732" lon="37.64326"></trkpt>
    <trkpt lat="55.89724" lon="37.64392"></trkpt>
    <trkpt lat="55.89702" lon="37.64571"></trkpt>
    <trkpt lat="55.89673" lon="37.64806"></trkpt>
    <trkpt lat="55.89669" lon="37.64843"></trkpt>
    <trkpt lat="55.89656" lon="37.64967"></trkpt>
    <trkpt lat="55.89637" lon="37.65157"></trkpt>
    <trkpt lat="55.89628" lon="37.65246"></trkpt>
    <trkpt lat="55.8962" lon="37.65335"></trkpt>
    <trkpt lat="55.89603" lon="37.65527"></trkpt>
    <trkpt lat="55.896" lon="37.65561"></trkpt>
    <trkpt lat="55.89592" lon="37.65656"></trkpt>
    <trkpt lat="55.8959" lon="37.65679"></trkpt>
    <trkpt lat="55.89574" lon="37.65907"></trkpt>
    <trkpt lat="55.89572" lon="37.6594"></trkpt>
    <trkpt lat="55.89561" lon="37.66115"></trkpt>
    <trkpt lat="55.89557" lon="37.6618"></trkpt>
    <trkpt lat="55.89552" lon="37.66239"></trkpt>
    <trkpt lat="55.89546" lon="37.66328"></trkpt>
    <trkpt lat="55.89546" lon="37.66331"></trkpt>
    <trkpt lat="55.89543" lon="37.66379"></trkpt>
    <trkpt lat="55.89541" lon="37.66407"></trkpt>
    <trkpt lat="55.89537" lon="37.66497"></trkpt>
    <trkpt lat="55.89534" lon="37.66558"></trkpt>
    <trkpt lat="55.89531" lon="37.66613"></trkpt>
    <trkpt lat="55.89526" lon="37.6675"></trkpt>
    <trkpt lat="55.89524" lon="37.66834"></trkpt>
    <trkpt lat="55.89523" lon="37.66863"></trkpt>
    <trkpt lat="55.89519" lon="37.66949"></trkpt>
    <trkpt lat="55.89516" lon="37.67038"></trkpt>
    <trkpt lat="55.89515" lon="37.67077"></trkpt>
    <trkpt lat="55.89513" lon="37.67126"></trkpt>
    <trkpt lat="55.89512" lon="37.67169"></trkpt>
    <trkpt lat="55.89511" lon="37.67195"></trkpt>
    <trkpt lat="55.8951" lon="37.67212"></trkpt>
    <trkpt lat="55.89509" lon="37.67245"></trkpt>
    <trkpt lat="55.89506" lon="37.67358"></trkpt>
    <trkpt lat="55.89505" lon="37.67371"></trkpt>
    <trkpt lat="55.89505" lon="37.67428"></trkpt>
    <trkpt lat="55.89505" lon="37.67455"></trkpt>
    <trkpt lat="55.89504" lon="37.6748"></trkpt>
    <trkpt lat="55.89504" lon="37.675"></trkpt>
    <trkpt lat="55.89502" lon="37.67554"></trkpt>
    <trkpt lat="55.895" lon="37.67649"></trkpt>
    <trkpt lat="55.89498" lon="37.67765"></trkpt>
    <trkpt lat="55.89496" lon="37.67857"></trkpt>
    <trkpt lat="55.89494" lon="37.67929"></trkpt>
    <trkpt lat="55.89492" lon="37.6804"></trkpt>
    <trkpt lat="55.8949" lon="37.68105"></trkpt>
    <trkpt lat="55.89487" lon="37.6818"></trkpt>
    <trkpt lat="55.89485" lon="37.68261"></trkpt>
    <trkpt lat="55.89484" lon="37.68287"></trkpt>
    <trkpt lat="55.89483" lon="37.68312"></trkpt>
    <trkpt lat="55.89476" lon="37.68497"></trkpt>
    <trkpt lat="55.89474" lon="37.68566"></trkpt>
    <trkpt lat="55.89473" lon="37.68598"></trkpt>
    <trkpt lat="55.89471" lon="37.68689"></trkpt>
    <trkpt lat="55.89471" lon="37.68694"></trkpt>
    <trkpt lat="55.89467" lon="37.68847"></trkpt>
    <trkpt lat="55.89464" lon="37.68914"></trkpt>
    <trkpt lat="55.8946" lon="37.69061"></trkpt>
    <trkpt lat="55.89459" lon="37.69116"></trkpt>
    <trkpt lat="55.89457" lon="37.69163"></trkpt>
    <trkpt lat="55.89456" lon="37.692"></trkpt>
    <trkpt lat="55.89454" lon="37.69257"></trkpt>
    <trkpt lat="55.89448" lon="37.6937"></trkpt>
    <trkpt lat="55.89444" lon="37.69437"></trkpt>
    <trkpt lat="55.89438" lon="37.69505"></trkpt>
    <trkpt lat="55.89434" lon="37.6955"></trkpt>
    <trkpt lat="55.89431" lon="37.69583"></trkpt>
    <trkpt lat="55.89424" lon="37.69637"></trkpt>
    <trkpt lat="55.89413" lon="37.69732"></trkpt>
    <trkpt lat="55.894" lon="37.69813"></trkpt>
    <trkpt lat="55.89394" lon="37.6985"></trkpt>
    <trkpt lat="55.89385" lon="37.69897"></trkpt>
    <trkpt lat="55.8938" lon="37.69931"></trkpt>
    <trkpt lat="55.89375" lon="37.69954"></trkpt>
    <trkpt lat="55.89367" lon="37.7"></trkpt>
    <trkpt lat="55.89363" lon="37.70018"></trkpt>
    <trkpt lat="55.89358" lon="37.70041"></trkpt>
    <trkpt lat="55.89344" lon="37.70105"></trkpt>
    <trkpt lat="55.89312" lon="37.70231"></trkpt>
    <trkpt lat="55.89293" lon="37.703"></trkpt>
    <trkpt lat="55.89281" lon="37.70338"></trkpt>
    <trkpt lat="55.89264" lon="37.70395"></trkpt>
    <trkpt lat="55.89249" lon="37.70445"></trkpt>
    <trkpt lat="55.89226" lon="37.70512"></trkpt>
    <trkpt lat="55.89204" lon="37.70571"></trkpt>
    <trkpt lat="55.89192" lon="37.70601"></trkpt>
    <trkpt lat="55.89178" lon="37.70636"></trkpt>
    <trkpt lat="55.89165" lon="37.70668"></trkpt>
    <trkpt lat="55.89149" lon="37.70705"></trkpt>
    <trkpt lat="55.89122" lon="37.70768"></trkpt>
    <trkpt lat="55.89082" lon="37.7086"></trkpt>
    <trkpt lat="55.89059" lon="37.70909"></trkpt>
    <trkpt lat="55.89046" lon="37.7094"></trkpt>
    <trkpt lat="55.89028" lon="37.70983"></trkpt>
    <trkpt lat="55.89021" lon="37.70998"></trkpt>
    <trkpt lat="55.89008" lon="37.71026"></trkpt>
    <trkpt lat="55.88984" lon="37.71079"></trkpt>
    <trkpt lat="55.88967" lon="37.71116"></trkpt>
    <trkpt lat="55.88948" lon="37.71155"></trkpt>
    <trkpt lat="55.88934" lon="37.71183"></trkpt>
    <trkpt lat="55.8892" lon="37.71212"></trkpt>
    <trkpt lat="55.88913" lon="37.71226"></trkpt>
    <trkpt lat="55.88884" lon="37.71283"></trkpt>
    <trkpt lat="55.88881" lon="37.7129"></trkpt>
    <trkpt lat="55.88854" lon="37.71342"></trkpt>
    <trkpt lat="55.88853" lon="37.71345"></trkpt>
    <trkpt lat="55.88823" lon="37.71403"></trkpt>
    <trkpt lat="55.8882" lon="37.71408"></trkpt>
    <trkpt lat="55.88804" lon="37.7144"></trkpt>
    <trkpt lat="55.8879" lon="37.71467"></trkpt>
    <trkpt lat="55.88776" lon="37.71494"></trkpt>
    <trkpt lat="55.88765" lon="37.71514"></trkpt>
    <trkpt lat="55.88751" lon="37.71541"></trkpt>
    <trkpt lat="55.88739" lon="37.71564"></trkpt>
    <trkpt lat="55.88729" lon="37.71584"></trkpt>
    <trkpt lat="55.88709" lon="37.71622"></trkpt>
    <trkpt lat="55.88705" lon="37.7163"></trkpt>
    <trkpt lat="55.88701" lon="37.71636"></trkpt>
    <trkpt lat="55.88684" lon="37.71668"></trkpt>
    <trkpt lat="55.88681" lon="37.71673"></trkpt>
    <trkpt lat="55.88662" lon="37.71707"></trkpt>
    <trkpt lat="55.88655" lon="37.71719"></trkpt>
    <trkpt lat="55.88642" lon="37.71743"></trkpt>
    <trkpt lat="55.88626" lon="37.71772"></trkpt>
    <trkpt lat="55.886" lon="37.71819"></trkpt>
    <trkpt lat="55.88585" lon="37.71849"></trkpt>
    <trkpt lat="55.8857" lon="37.71878"></trkpt>
    <trkpt lat="55.88563" lon="37.71891"></trkpt>
    <trkpt lat="55.88539" lon="37.71937"></trkpt>
    <trkpt lat="55.88539" lon="37.71938"></trkpt>
    <trkpt lat="55.88522" lon="37.71972"></trkpt>
    <trkpt lat="55.88514" lon="37.71992"></trkpt>
    <trkpt lat="55.88499" lon="37.72023"></trkpt>
    <trkpt lat="55.8849" lon="37.72042"></trkpt>
    <trkpt lat="55.88482" lon="37.72059"></trkpt>
    <trkpt lat="55.88473" lon="37.72078"></trkpt>
    <trkpt lat="55.88462" lon="37.721"></trkpt>
    <trkpt lat="55.88442" lon="37.72139"></trkpt>
    <trkpt lat="55.88433" lon="37.72156"></trkpt>
    <trkpt lat="55.88419" lon="37.72182"></trkpt>
    <trkpt lat="55.88407" lon="37.72204"></trkpt>
    <trkpt lat="55.88395" lon="37.72229"></trkpt>
    <trkpt lat="55.8838" lon="37.72258"></trkpt>
    <trkpt lat="55.88349" lon="37.72318"></trkpt>
    <trkpt lat="55.88332" lon="37.72354"></trkpt>
    <trkpt lat="55.88322" lon="37.72373"></trkpt>
    <trkpt lat="55.88301" lon="37.72415"></trkpt>
    <trkpt lat="55.88286" lon="37.72445"></trkpt>
    <trkpt lat="55.8828" lon="37.72456"></trkpt>
    <trkpt lat="55.88266" lon="37.72482"></trkpt>
    <trkpt lat="55.88258" lon="37.72497"></trkpt>
    <trkpt lat="55.8825" lon="37.72512"></trkpt>
    <trkpt lat="55.88248" lon="37.72515"></trkpt>
    <trkpt lat="55.88239" lon="37.72532"></trkpt>
    <trkpt lat="55.88214" lon="37.72579"></trkpt>
    <trkpt lat="55.8821" lon="37.72588"></trkpt>
    <trkpt lat="55.88201" lon="37.72607"></trkpt>
    <trkpt lat="55.88196" lon="37.72617"></trkpt>
    <trkpt lat="55.88184" lon="37.72642"></trkpt>
    <trkpt lat="55.88164" lon="37.72684"></trkpt>
    <trkpt lat="55.88142" lon="37.7273"></trkpt>
    <trkpt lat="55.88128" lon="37.72762"></trkpt>
    <trkpt lat="55.88125" lon="37.72768"></trkpt>
    <trkpt lat="55.88107" lon="37.72803"></trkpt>
    <trkpt lat="55.88091" lon="37.72834"></trkpt>
    <trkpt lat="55.88078" lon="37.72863"></trkpt>
    <trkpt lat="55.88065" lon="37.7289"></trkpt>
    <trkpt lat="55.88053" lon="37.72913"></trkpt>
    <trkpt lat="55.88039" lon="37.72946"></trkpt>
    <trkpt lat="55.88006" lon="37.73015"></trkpt>
    <trkpt lat="55.87993" lon="37.73044"></trkpt>
    <trkpt lat="55.8797" lon="37.7309"></trkpt>
    <trkpt lat="55.87949" lon="37.73134"></trkpt>
    <trkpt lat="55.87947" lon="37.73138"></trkpt>
    <trkpt lat="55.87925" lon="37.73186"></trkpt>
    <trkpt lat="55.87922" lon="37.73193"></trkpt>
    <trkpt lat="55.87891" lon="37.73251"></trkpt>
    <trkpt lat="55.87878" lon="37.73275"></trkpt>
    <trkpt lat="55.87849" lon="37.73328"></trkpt>
    <trkpt lat="55.8783" lon="37.73366"></trkpt>
    <trkpt lat="55.87817" lon="37.73393"></trkpt>
    <trkpt lat="55.87802" lon="37.73426"></trkpt>
    <trkpt lat="55.8778" lon="37.7347"></trkpt>
    <trkpt lat="55.87758" lon="37.73512"></trkpt>
    <trkpt lat="55.87751" lon="37.73527"></trkpt>
    <trkpt lat="55.87721" lon="37.73586"></trkpt>
    <trkpt lat="55.87701" lon="37.73625"></trkpt>
    <trkpt lat="55.87656" lon="37.73712"></trkpt>
    <trkpt lat="55.87641" lon="37.73742"></trkpt>
    <trkpt lat="55.87626" lon="37.73772"></trkpt>
    <trkpt lat="55.87614" lon="37.73794"></trkpt>
    <trkpt lat="55.8759" lon="37.73839"></trkpt>
    <trkpt lat="55.87578" lon="37.73861"></trkpt>
    <trkpt lat="55.8756" lon="37.73895"></trkpt>
    <trkpt lat="55.87524" lon="37.73967"></trkpt>
    <trkpt lat="55.87472" lon="37.74069"></trkpt>
    <trkpt lat="55.87422" lon="37.74168"></trkpt>
    <trkpt lat="55.87391" lon="37.74227"></trkpt>
    <trkpt lat="55.87369" lon="37.74269"></trkpt>
    <trkpt lat="55.87356" lon="37.74292"></trkpt>
    <trkpt lat="55.87334" lon="37.74337"></trkpt>
    <trkpt lat="55.87319" lon="37.74368"></trkpt>
    <trkpt lat="55.87304" lon="37.74396"></trkpt>
    <trkpt lat="55.87291" lon="37.74422"></trkpt>
    <trkpt lat="55.87269" lon="37.74465"></trkpt>
    <trkpt lat="55.8724" lon="37.74521"></trkpt>
    <trkpt lat="55.87217" lon="37.74564"></trkpt>
    <trkpt lat="55.87202" lon="37.74593"></trkpt>
    <trkpt lat="55.87194" lon="37.74609"></trkpt>
    <trkpt lat="55.87173" lon="37.74649"></trkpt>
    <trkpt lat="55.87151" lon="37.74693"></trkpt>
    <trkpt lat="55.87129" lon="37.74735"></trkpt>
    <trkpt lat="55.87103" lon="37.74786"></trkpt>
    <trkpt lat="55.87078" lon="37.74834"></trkpt>
    <trkpt lat="55.87056" lon="37.74877"></trkpt>
    <trkpt lat="55.87034" lon="37.7492"></trkpt>
    <trkpt lat="55.87004" lon="37.74978"></trkpt>
    <trkpt lat="55.86977" lon="37.75032"></trkpt>
    <trkpt lat="55.86932" lon="37.75119"></trkpt>
    <trkpt lat="55.86881" lon="37.75218"></trkpt>
    <trkpt lat="55.86815" lon="37.75346"></trkpt>
    <trkpt lat="55.868" lon="37.75375"></trkpt>
    <trkpt lat="55.8676" lon="37.75453"></trkpt>
    <trkpt lat="55.8673" lon="37.75512"></trkpt>
    <trkpt lat="55.86701" lon="37.75568"></trkpt>
    <trkpt lat="55.86665" lon="37.75638"></trkpt>
    <trkpt lat="55.86644" lon="37.7568"></trkpt>
    <trkpt lat="55.86607" lon="37.75749"></trkpt>
    <trkpt lat="55.86578" lon="37.75805"></trkpt>
    <trkpt lat="55.86568" lon="37.75825"></trkpt>
    <trkpt lat="55.86557" lon="37.75848"></trkpt>
    <trkpt lat="55.86536" lon="37.7589"></trkpt>
    <trkpt lat="55.86507" lon="37.75948"></trkpt>
    <trkpt lat="55.86491" lon="37.75978"></trkpt>
    <trkpt lat="55.86485" lon="37.75991"></trkpt>
    <trkpt lat="55.86479" lon="37.76003"></trkpt>
    <trkpt lat="55.8647" lon="37.76017"></trkpt>
    <trkpt lat="55.86462" lon="37.76033"></trkpt>
    <trkpt lat="55.86448" lon="37.76058"></trkpt>
    <trkpt lat="55.86433" lon="37.76087"></trkpt>
    <trkpt lat="55.86419" lon="37.76116"></trkpt>
    <trkpt lat="55.86406" lon="37.76143"></trkpt>
    <trkpt lat="55.8637" lon="37.76214"></trkpt>
    <trkpt lat="55.86347" lon="37.76259"></trkpt>
    <trkpt lat="55.86326" lon="37.76298"></trkpt>
    <trkpt lat="55.86308" lon="37.76333"></trkpt>
    <trkpt lat="55.86305" lon="37.76338"></trkpt>
    <trkpt lat="55.86268" lon="37.76411"></trkpt>
    <trkpt lat="55.86187" lon="37.76572"></trkpt>
    <trkpt lat="55.86154" lon="37.76636"></trkpt>
    <trkpt lat="55.86066" lon="37.76804"></trkpt>
    <trkpt lat="55.86003" lon="37.76929"></trkpt>
    <trkpt lat="55.85924" lon="37.77086"></trkpt>
    <trkpt lat="55.85918" lon="37.77098"></trkpt>
    <trkpt lat="55.85868" lon="37.77195"></trkpt>
    <trkpt lat="55.85804" lon="37.77317"></trkpt>
    <trkpt lat="55.8578" lon="37.77364"></trkpt>
    <trkpt lat="55.85751" lon="37.7742"></trkpt>
    <trkpt lat="55.85707" lon="37.77503"></trkpt>
    <trkpt lat="55.85677" lon="37.7756"></trkpt>
    <trkpt lat="55.85648" lon="37.77617"></trkpt>
    <trkpt lat="55.85626" lon="37.77658"></trkpt>
    <trkpt lat="55.85596" lon="37.7772"></trkpt>
    <trkpt lat="55.85509" lon="37.7789"></trkpt>
    <trkpt lat="55.85462" lon="37.77983"></trkpt>
    <trkpt lat="55.85433" lon="37.78034"></trkpt>
    <trkpt lat="55.85402" lon="37.78093"></trkpt>
    <trkpt lat="55.85386" lon="37.78123"></trkpt>
    <trkpt lat="55.85365" lon="37.78163"></trkpt>
    <trkpt lat="55.85331" lon="37.78235"></trkpt>
    <trkpt lat="55.85265" lon="37.78361"></trkpt>
    <trkpt lat="55.85186" lon="37.78515"></trkpt>
    <trkpt lat="55.85121" lon="37.78643"></trkpt>
    <trkpt lat="55.85077" lon="37.78728"></trkpt>
    <trkpt lat="55.85041" lon="37.78797"></trkpt>
    <trkpt lat="55.85008" lon="37.78861"></trkpt>
    <trkpt lat="55.84992" lon="37.78893"></trkpt>
    <trkpt lat="55.84966" lon="37.78941"></trkpt>
    <trkpt lat="55.84948" lon="37.78976"></trkpt>
    <trkpt lat="55.84924" lon="37.79021"></trkpt>
    <trkpt lat="55.84902" lon="37.79064"></trkpt>
    <trkpt lat="55.84889" lon="37.79092"></trkpt>
    <trkpt lat="55.84872" lon="37.79124"></trkpt>
    <trkpt lat="55.84866" lon="37.79134"></trkpt>
    <trkpt lat="55.84865" lon="37.79137"></trkpt>
    <trkpt lat="55.84859" lon="37.79148"></trkpt>
    <trkpt lat="55.84853" lon="37.79159"></trkpt>
    <trkpt lat="55.84828" lon="37.79208"></trkpt>
    <trkpt lat="55.84778" lon="37.79305"></trkpt>
    <trkpt lat="55.84742" lon="37.79373"></trkpt>
    <trkpt lat="55.84718" lon="37.79418"></trkpt>
    <trkpt lat="55.84697" lon="37.79458"></trkpt>
    <trkpt lat="55.8455" lon="37.79746"></trkpt>
    <trkpt lat="55.84324" lon="37.80183"></trkpt>
    <trkpt lat="55.84172" lon="37.80479"></trkpt>
    <trkpt lat="55.84161" lon="37.805"></trkpt>
    <trkpt lat="55.84155" lon="37.80512"></trkpt>
    <trkpt lat="55.84058" lon="37.80698"></trkpt>
    <trkpt lat="55.84016" lon="37.8078"></trkpt>
    <trkpt lat="55.83984" lon="37.80844"></trkpt>
    <trkpt lat="55.83963" lon="37.80885"></trkpt>
    <trkpt lat="55.83907" lon="37.80995"></trkpt>
    <trkpt lat="55.8387" lon="37.81069"></trkpt>
    <trkpt lat="55.83841" lon="37.81125"></trkpt>
    <trkpt lat="55.83787" lon="37.81227"></trkpt>
    <trkpt lat="55.8373" lon="37.81333"></trkpt>
    <trkpt lat="55.8368" lon="37.81427"></trkpt>
    <trkpt lat="55.83653" lon="37.81479"></trkpt>
    <trkpt lat="55.83646" lon="37.81492"></trkpt>
    <trkpt lat="55.8361" lon="37.81562"></trkpt>
    <trkpt lat="55.83592" lon="37.81598"></trkpt>
    <trkpt lat="55.83559" lon="37.81663"></trkpt>
    <trkpt lat="55.83521" lon="37.8174"></trkpt>
    <trkpt lat="55.83434" lon="37.81907"></trkpt>
    <trkpt lat="55.83424" lon="37.81925"></trkpt>
    <trkpt lat="55.83418" lon="37.81939"></trkpt>
    <trkpt lat="55.83401" lon="37.8197"></trkpt>
    <trkpt lat="55.83368" lon="37.82034"></trkpt>
    <trkpt lat="55.83326" lon="37.82119"></trkpt>
    <trkpt lat="55.83271" lon="37.82227"></trkpt>
    <trkpt lat="55.83246" lon="37.82272"></trkpt>
    <trkpt lat="55.83232" lon="37.82299"></trkpt>
    <trkpt lat="55.83217" lon="37.82328"></trkpt>
    <trkpt lat="55.83195" lon="37.8237"></trkpt>
    <trkpt lat="55.8317" lon="37.82417"></trkpt>
    <trkpt lat="55.83107" lon="37.82538"></trkpt>
    <trkpt lat="55.83092" lon="37.82567"></trkpt>
    <trkpt lat="55.83076" lon="37.82598"></trkpt>
    <trkpt lat="55.83029" lon="37.82691"></trkpt>
    <trkpt lat="55.83017" lon="37.82716"></trkpt>
    <trkpt lat="55.83004" lon="37.82739"></trkpt>
    <trkpt lat="55.82998" lon="37.8275"></trkpt>
    <trkpt lat="55.82981" lon="37.82783"></trkpt>
    <trkpt lat="55.82968" lon="37.82808"></trkpt>
    <trkpt lat="55.82964" lon="37.82817"></trkpt>
    <trkpt lat="55.82945" lon="37.82853"></trkpt>
    <trkpt lat="55.82887" lon="37.82951"></trkpt>
    <trkpt lat="55.82873" lon="37.82977"></trkpt>
    <trkpt lat="55.82834" lon="37.83037"></trkpt>
    <trkpt lat="55.82816" lon="37.83066"></trkpt>
    <trkpt lat="55.82801" lon="37.8309"></trkpt>
    <trkpt lat="55.82792" lon="37.83101"></trkpt>
    <trkpt lat="55.82778" lon="37.83121"></trkpt>
    <trkpt lat="55.82749" lon="37.83162"></trkpt>
    <trkpt lat="55.82735" lon="37.83183"></trkpt>
    <trkpt lat="55.82719" lon="37.83204"></trkpt>
    <trkpt lat="55.82704" lon="37.83222"></trkpt>
    <trkpt lat="55.82627" lon="37.83315"></trkpt>
    <trkpt lat="55.82589" lon="37.83357"></trkpt>
    <trkpt lat="55.82572" lon="37.83375"></trkpt>
    <trkpt lat="55.82561" lon="37.83385"></trkpt>
    <trkpt lat="55.82484" lon="37.83458"></trkpt>
    <trkpt lat="55.82469" lon="37.83472"></trkpt>
    <trkpt lat="55.82456" lon="37.83482"></trkpt>
    <trkpt lat="55.824" lon="37.83531"></trkpt>
    <trkpt lat="55.82371" lon="37.83553"></trkpt>
    <trkpt lat="55.82311" lon="37.83596"></trkpt>
    <trkpt lat="55.82254" lon="37.83632"></trkpt>
    <trkpt lat="55.82243" lon="37.83639"></trkpt>
    <trkpt lat="55.822" lon="37.83665"></trkpt>
    <trkpt lat="55.82148" lon="37.83693"></trkpt>
    <trkpt lat="55.82109" lon="37.8371"></trkpt>
    <trkpt lat="55.82087" lon="37.83721"></trkpt>
    <trkpt lat="55.82042" lon="37.83739"></trkpt>
    <trkpt lat="55.82017" lon="37.83747"></trkpt>
    <trkpt lat="55.81986" lon="37.83758"></trkpt>
    <trkpt lat="55.81928" lon="37.83775"></trkpt>
    <trkpt lat="55.81918" lon="37.83776"></trkpt>
    <trkpt lat="55.81907" lon="37.83778"></trkpt>
    <trkpt lat="55.81894" lon="37.83781"></trkpt>
    <trkpt lat="55.81863" lon="37.83787"></trkpt>
    <trkpt lat="55.81844" lon="37.8379"></trkpt>
    <trkpt lat="55.81748" lon="37.83804"></trkpt>
    <trkpt lat="55.81689" lon="37.83814"></trkpt>
    <trkpt lat="55.81675" lon="37.83817"></trkpt>
    <trkpt lat="55.81652" lon="37.83823"></trkpt>
    <trkpt lat="55.81624" lon="37.83831"></trkpt>
    <trkpt lat="55.81578" lon="37.83841"></trkpt>
    <trkpt lat="55.81554" lon="37.83845"></trkpt>
    <trkpt lat="55.81489" lon="37.83854"></trkpt>
    <trkpt lat="55.81452" lon="37.83858"></trkpt>
    <trkpt lat="55.81447" lon="37.83859"></trkpt>
    <trkpt lat="55.81446" lon="37.83859"></trkpt>
    <trkpt lat="55.81407" lon="37.83868"></trkpt>
    <trkpt lat="55.81369" lon="37.83872"></trkpt>
    <trkpt lat="55.81325" lon="37.83877"></trkpt>
    <trkpt lat="55.81272" lon="37.83883"></trkpt>
    <trkpt lat="55.81125" lon="37.83897"></trkpt>
    <trkpt lat="55.81007" lon="37.8391"></trkpt>
    <trkpt lat="55.80959" lon="37.83912"></trkpt>
    <trkpt lat="55.80796" lon="37.83932"></trkpt>
    <trkpt lat="55.80767" lon="37.83935"></trkpt>
    <trkpt lat="55.80733" lon="37.83939"></trkpt>
    <trkpt lat="55.80714" lon="37.83941"></trkpt>
    <trkpt lat="55.8071" lon="37.83941"></trkpt>
    <trkpt lat="55.80676" lon="37.83942"></trkpt>
    <trkpt lat="55.80604" lon="37.83943"></trkpt>
    <trkpt lat="55.80511" lon="37.83942"></trkpt>
    <trkpt lat="55.80492" lon="37.83943"></trkpt>
    <trkpt lat="55.804" lon="37.8395"></trkpt>
    <trkpt lat="55.80375" lon="37.83953"></trkpt>
    <trkpt lat="55.80278" lon="37.83965"></trkpt>
    <trkpt lat="55.80226" lon="37.83973"></trkpt>
    <trkpt lat="55.80137" lon="37.83982"></trkpt>
    <trkpt lat="55.7998" lon="37.83999"></trkpt>
    <trkpt lat="55.79811" lon="37.84018"></trkpt>
    <trkpt lat="55.79763" lon="37.84024"></trkpt>
    <trkpt lat="55.79712" lon="37.84029"></trkpt>
    <trkpt lat="55.79627" lon="37.8404"></trkpt>
    <trkpt lat="55.79508" lon="37.84051"></trkpt>
    <trkpt lat="55.79477" lon="37.84055"></trkpt>
    <trkpt lat="55.79409" lon="37.84061"></trkpt>
    <trkpt lat="55.79328" lon="37.84072"></trkpt>
    <trkpt lat="55.79221" lon="37.84083"></trkpt>
    <trkpt lat="55.79187" lon="37.84088"></trkpt>
    <trkpt lat="55.79164" lon="37.8409"></trkpt>
    <trkpt lat="55.79089" lon="37.84098"></trkpt>
    <trkpt lat="55.79003" lon="37.84108"></trkpt>
    <trkpt lat="55.78918" lon="37.84117"></trkpt>
    <trkpt lat="55.78808" lon="37.84127"></trkpt>
    <trkpt lat="55.78724" lon="37.84136"></trkpt>
    <trkpt lat="55.7866" lon="37.84143"></trkpt>
    <trkpt lat="55.78603" lon="37.8415"></trkpt>
    <trkpt lat="55.78521" lon="37.84159"></trkpt>
    <trkpt lat="55.78314" lon="37.84184"></trkpt>
    <trkpt lat="55.78264" lon="37.84188"></trkpt>
    <trkpt lat="55.78097" lon="37.84204"></trkpt>
    <trkpt lat="55.78077" lon="37.84209"></trkpt>
    <trkpt lat="55.7803" lon="37.84215"></trkpt>
    <trkpt lat="55.77943" lon="37.84224"></trkpt>
    <trkpt lat="55.77822" lon="37.84238"></trkpt>
    <trkpt lat="55.77802" lon="37.84241"></trkpt>
    <trkpt lat="55.77789" lon="37.84242"></trkpt>
    <trkpt lat="55.7777" lon="37.84244"></trkpt>
    <trkpt lat="55.77747" lon="37.84246"></trkpt>
    <trkpt lat="55.77686" lon="37.84252"></trkpt>
    <trkpt lat="55.77625" lon="37.84258"></trkpt>
    <trkpt lat="55.77569" lon="37.84265"></trkpt>
    <trkpt lat="55.77449" lon="37.84277"></trkpt>
    <trkpt lat="55.7743" lon="37.84278"></trkpt>
    <trkpt lat="55.77395" lon="37.84281"></trkpt>
    <trkpt lat="55.7735" lon="37.84287"></trkpt>
    <trkpt lat="55.77337" lon="37.84288"></trkpt>
    <trkpt lat="55.77318" lon="37.8429"></trkpt>
    <trkpt lat="55.77279" lon="37.84296"></trkpt>
    <trkpt lat="55.77259" lon="37.84298"></trkpt>
    <trkpt lat="55.77196" lon="37.84302"></trkpt>
    <trkpt lat="55.77066" lon="37.84304"></trkpt>
    <trkpt lat="55.77037" lon="37.84304"></trkpt>
    <trkpt lat="55.76919" lon="37.84299"></trkpt>
    <trkpt lat="55.76894" lon="37.84297"></trkpt>
    <trkpt lat="55.76813" lon="37.84292"></trkpt>
    <trkpt lat="55.76764" lon="37.84289"></trkpt>
    <trkpt lat="55.76743" lon="37.84289"></trkpt>
    <trkpt lat="55.76703" lon="37.84287"></trkpt>
    <trkpt lat="55.76648" lon="37.84284"></trkpt>
    <trkpt lat="55.76592" lon="37.84281"></trkpt>
    <trkpt lat="55.7653" lon="37.84279"></trkpt>
    <trkpt lat="55.76515" lon="37.84277"></trkpt>
    <trkpt lat="55.7634" lon="37.84266"></trkpt>
    <trkpt lat="55.76234" lon="37.84262"></trkpt>
    <trkpt lat="55.76233" lon="37.84262"></trkpt>
    <trkpt lat="55.76141" lon="37.84256"></trkpt>
    <trkpt lat="55.76022" lon="37.8425"></trkpt>
    <trkpt lat="55.75929" lon="37.84245"></trkpt>
    <trkpt lat="55.75866" lon="37.84242"></trkpt>
    <trkpt lat="55.75732" lon="37.84235"></trkpt>
    <trkpt lat="55.75717" lon="37.84234"></trkpt>
    <trkpt lat="55.7571" lon="37.84233"></trkpt>
    <trkpt lat="55.75655" lon="37.8423"></trkpt>
    <trkpt lat="55.75604" lon="37.84228"></trkpt>
    <trkpt lat="55.75456" lon="37.8422"></trkpt>
    <trkpt lat="55.75438" lon="37.84219"></trkpt>
    <trkpt lat="55.75425" lon="37.84218"></trkpt>
    <trkpt lat="55.75391" lon="37.84216"></trkpt>
    <trkpt lat="55.75361" lon="37.84215"></trkpt>
    <trkpt lat="55.75277" lon="37.84211"></trkpt>
    <trkpt lat="55.75213" lon="37.84208"></trkpt>
    <trkpt lat="55.75061" lon="37.842"></trkpt>
    <trkpt lat="55.7496" lon="37.84194"></trkpt>
    <trkpt lat="55.74903" lon="37.84192"></trkpt>
    <trkpt lat="55.74846" lon="37.84189"></trkpt>
    <trkpt lat="55.74782" lon="37.84185"></trkpt>
    <trkpt lat="55.74739" lon="37.84182"></trkpt>
    <trkpt lat="55.74693" lon="37.8418"></trkpt>
    <trkpt lat="55.74641" lon="37.84177"></trkpt>
    <trkpt lat="55.74582" lon="37.84175"></trkpt>
    <trkpt lat="55.74574" lon="37.84174"></trkpt>
    <trkpt lat="55.74547" lon="37.84173"></trkpt>
    <trkpt lat="55.74524" lon="37.84172"></trkpt>
    <trkpt lat="55.74517" lon="37.84172"></trkpt>
    <trkpt lat="55.7447" lon="37.84169"></trkpt>
    <trkpt lat="55.74423" lon="37.84167"></trkpt>
    <trkpt lat="55.74406" lon="37.84167"></trkpt>
    <trkpt lat="55.74382" lon="37.84165"></trkpt>
    <trkpt lat="55.74314" lon="37.8416"></trkpt>
    <trkpt lat="55.74282" lon="37.84159"></trkpt>
    <trkpt lat="55.74232" lon="37.84157"></trkpt>
    <trkpt lat="55.74168" lon="37.84152"></trkpt>
    <trkpt lat="55.74115" lon="37.84146"></trkpt>
    <trkpt lat="55.74068" lon="37.8414"></trkpt>
    <trkpt lat="55.74058" lon="37.8414"></trkpt>
    <trkpt lat="55.74043" lon="37.84138"></trkpt>
    <trkpt lat="55.74008" lon="37.84133"></trkpt>
    <trkpt lat="55.73965" lon="37.84128"></trkpt>
    <trkpt lat="55.73953" lon="37.84127"></trkpt>
    <trkpt lat="55.73911" lon="37.84122"></trkpt>
    <trkpt lat="55.73811" lon="37.84109"></trkpt>
    <trkpt lat="55.73644" lon="37.84087"></trkpt>
    <trkpt lat="55.73396" lon="37.84062"></trkpt>
    <trkpt lat="55.73376" lon="37.84055"></trkpt>
    <trkpt lat="55.73362" lon="37.84054"></trkpt>
    <trkpt lat="55.73321" lon="37.84048"></trkpt>
    <trkpt lat="55.73286" lon="37.84045"></trkpt>
    <trkpt lat="55.73188" lon="37.84034"></trkpt>
    <trkpt lat="55.73066" lon="37.84022"></trkpt>
    <trkpt lat="55.7306" lon="37.8402"></trkpt>
    <trkpt lat="55.73051" lon="37.84018"></trkpt>
    <trkpt lat="55.73045" lon="37.84017"></trkpt>
    <trkpt lat="55.73032" lon="37.84015"></trkpt>
    <trkpt lat="55.72961" lon="37.84008"></trkpt>
    <trkpt lat="55.72904" lon="37.84003"></trkpt>
    <trkpt lat="55.72879" lon="37.83999"></trkpt>
    <trkpt lat="55.72811" lon="37.83991"></trkpt>
    <trkpt lat="55.72746" lon="37.83984"></trkpt>
    <trkpt lat="55.72727" lon="37.83981"></trkpt>
    <trkpt lat="55.72661" lon="37.83972"></trkpt>
    <trkpt lat="55.72621" lon="37.83966"></trkpt>
    <trkpt lat="55.72567" lon="37.83961"></trkpt>
    <trkpt lat="55.72508" lon="37.83953"></trkpt>
    <trkpt lat="55.72404" lon="37.83939"></trkpt>
    <trkpt lat="55.72045" lon="37.839"></trkpt>
    <trkpt lat="55.71921" lon="37.83883"></trkpt>
    <trkpt lat="55.71881" lon="37.83879"></trkpt>
    <trkpt lat="55.71874" lon="37.83878"></trkpt>
    <trkpt lat="55.71866" lon="37.83877"></trkpt>
    <trkpt lat="55.71861" lon="37.83876"></trkpt>
    <trkpt lat="55.71824" lon="37.83871"></trkpt>
    <trkpt lat="55.71712" lon="37.83859"></trkpt>
    <trkpt lat="55.71676" lon="37.83854"></trkpt>
    <trkpt lat="55.71652" lon="37.83851"></trkpt>
    <trkpt lat="55.71614" lon="37.83846"></trkpt>
    <trkpt lat="55.7159" lon="37.83843"></trkpt>
    <trkpt lat="55.7156" lon="37.83838"></trkpt>
    <trkpt lat="55.71547" lon="37.83835"></trkpt>
    <trkpt lat="55.71509" lon="37.83827"></trkpt>
    <trkpt lat="55.71471" lon="37.83817"></trkpt>
    <trkpt lat="55.71461" lon="37.83811"></trkpt>
    <trkpt lat="55.71451" lon="37.83808"></trkpt>
    <trkpt lat="55.71421" lon="37.83798"></trkpt>
    <trkpt lat="55.71399" lon="37.83791"></trkpt>
    <trkpt lat="55.71338" lon="37.83768"></trkpt>
    <trkpt lat="55.71304" lon="37.83753"></trkpt>
    <trkpt lat="55.71264" lon="37.83732"></trkpt>
    <trkpt lat="55.71245" lon="37.83722"></trkpt>
    <trkpt lat="55.71222" lon="37.83708"></trkpt>
    <trkpt lat="55.712" lon="37.83696"></trkpt>
    <trkpt lat="55.71178" lon="37.83685"></trkpt>
    <trkpt lat="55.71139" lon="37.83665"></trkpt>
    <trkpt lat="55.71087" lon="37.83638"></trkpt>
    <trkpt lat="55.71033" lon="37.83611"></trkpt>
    <trkpt lat="55.70991" lon="37.83588"></trkpt>
    <trkpt lat="55.70949" lon="37.83565"></trkpt>
    <trkpt lat="55.70913" lon="37.83546"></trkpt>
    <trkpt lat="55.70894" lon="37.83536"></trkpt>
    <trkpt lat="55.70881" lon="37.83529"></trkpt>
    <trkpt lat="55.70818" lon="37.83495"></trkpt>
    <trkpt lat="55.70748" lon="37.83458"></trkpt>
    <trkpt lat="55.7072" lon="37.83443"></trkpt>
    <trkpt lat="55.70692" lon="37.83428"></trkpt>
    <trkpt lat="55.70642" lon="37.83401"></trkpt>
    <trkpt lat="55.70601" lon="37.83379"></trkpt>
    <trkpt lat="55.70561" lon="37.83358"></trkpt>
    <trkpt lat="55.70507" lon="37.83329"></trkpt>
    <trkpt lat="55.70424" lon="37.83284"></trkpt>
    <trkpt lat="55.70386" lon="37.83264"></trkpt>
    <trkpt lat="55.70304" lon="37.8322"></trkpt>
    <trkpt lat="55.70198" lon="37.83164"></trkpt>
    <trkpt lat="55.70102" lon="37.83112"></trkpt>
    <trkpt lat="55.70069" lon="37.83095"></trkpt>
    <trkpt lat="55.70062" lon="37.83091"></trkpt>
    <trkpt lat="55.70043" lon="37.83082"></trkpt>
    <trkpt lat="55.70012" lon="37.83067"></trkpt>
    <trkpt lat="55.69986" lon="37.83055"></trkpt>
    <trkpt lat="55.69944" lon="37.83037"></trkpt>
    <trkpt lat="55.6991" lon="37.83023"></trkpt>
    <trkpt lat="55.69891" lon="37.83015"></trkpt>
    <trkpt lat="55.6986" lon="37.83004"></trkpt>
    <trkpt lat="55.69824" lon="37.82992"></trkpt>
    <trkpt lat="55.69802" lon="37.82985"></trkpt>
    <trkpt lat="55.69761" lon="37.82972"></trkpt>
    <trkpt lat="55.69746" lon="37.82968"></trkpt>
    <trkpt lat="55.69719" lon="37.8296"></trkpt>
    <trkpt lat="55.69677" lon="37.8295"></trkpt>
    <trkpt lat="55.69641" lon="37.82941"></trkpt>
    <trkpt lat="55.6961" lon="37.82936"></trkpt>
    <trkpt lat="55.69595" lon="37.82933"></trkpt>
    <trkpt lat="55.69576" lon="37.82929"></trkpt>
    <trkpt lat="55.69558" lon="37.82927"></trkpt>
    <trkpt lat="55.69532" lon="37.82923"></trkpt>
    <trkpt lat="55.69498" lon="37.82918"></trkpt>
    <trkpt lat="55.69456" lon="37.82914"></trkpt>
    <trkpt lat="55.69414" lon="37.82911"></trkpt>
    <trkpt lat="55.69388" lon="37.82909"></trkpt>
    <trkpt lat="55.69367" lon="37.82909"></trkpt>
    <trkpt lat="55.69365" lon="37.82908"></trkpt>
    <trkpt lat="55.69342" lon="37.82908"></trkpt>
    <trkpt lat="55.69305" lon="37.82907"></trkpt>
    <trkpt lat="55.69262" lon="37.82908"></trkpt>
    <trkpt lat="55.69238" lon="37.8291"></trkpt>
    <trkpt lat="55.69184" lon="37.82918"></trkpt>
    <trkpt lat="55.69117" lon="37.82924"></trkpt>
    <trkpt lat="55.69117" lon="37.82924"></trkpt>
    <trkpt lat="55.69101" lon="37.82917"></trkpt>
    <trkpt lat="55.69092" lon="37.82914"></trkpt>
    <trkpt lat="55.69084" lon="37.82911"></trkpt>
    <trkpt lat="55.69079" lon="37.8291"></trkpt>
    <trkpt lat="55.69073" lon="37.8291"></trkpt>
    <trkpt lat="55.69068" lon="37.8291"></trkpt>
    <trkpt lat="55.69062" lon="37.8291"></trkpt>
    <trkpt lat="55.69058" lon="37.82913"></trkpt>
    <trkpt lat="55.69055" lon="37.82914"></trkpt>
    <trkpt lat="55.69051" lon="37.82914"></trkpt>
    <trkpt lat="55.69043" lon="37.82915"></trkpt>
    <trkpt lat="55.6904" lon="37.82915"></trkpt>
    <trkpt lat="55.69037" lon="37.82914"></trkpt>
    <trkpt lat="55.69027" lon="37.82914"></trkpt>
    <trkpt lat="55.69019" lon="37.82914"></trkpt>
    <trkpt lat="55.69011" lon="37.82914"></trkpt>
    <trkpt lat="55.69004" lon="37.82915"></trkpt>
    <trkpt lat="55.68997" lon="37.82916"></trkpt>
    <trkpt lat="55.6899" lon="37.82917"></trkpt>
    <trkpt lat="55.6899" lon="37.82917"></trkpt>
    <trkpt lat="55.68962" lon="37.82923"></trkpt>
    <trkpt lat="55.68918" lon="37.82931"></trkpt>
    <trkpt lat="55.689" lon="37.82934"></trkpt>
    <trkpt lat="55.68898" lon="37.82935"></trkpt>
    <trkpt lat="55.6888" lon="37.8294"></trkpt>
    <trkpt lat="55.68822" lon="37.82956"></trkpt>
    <trkpt lat="55.68787" lon="37.82969"></trkpt>
    <trkpt lat="55.6878" lon="37.82972"></trkpt>
    <trkpt lat="55.68769" lon="37.82976"></trkpt>
  </trkseg>
</trk>
</gpx>